module bitbucket.org/crosschx/lookingglass-api

go 1.12

require (
	github.com/DATA-DOG/go-sqlmock v1.3.3
	github.com/beorn7/perks v1.0.1
	github.com/go-sql-driver/mysql v1.4.1
	github.com/golang/protobuf v1.3.2
	github.com/golang/snappy v0.0.1
	github.com/google/uuid v1.1.1
	github.com/hashicorp/errwrap v1.0.0
	github.com/hashicorp/go-cleanhttp v0.5.1
	github.com/hashicorp/go-hclog v0.9.2
	github.com/hashicorp/go-multierror v1.0.0
	github.com/hashicorp/go-retryablehttp v0.6.2
	github.com/hashicorp/go-rootcerts v1.0.1
	github.com/hashicorp/go-sockaddr v1.0.2
	github.com/hashicorp/hcl v1.0.0
	github.com/hashicorp/vault v1.2.2
	github.com/jmoiron/sqlx v1.2.0
	github.com/kelseyhightower/envconfig v1.4.0
	github.com/matttproud/golang_protobuf_extensions v1.0.1
	github.com/mitchellh/go-homedir v1.1.0
	github.com/mitchellh/mapstructure v1.1.2
	github.com/pierrec/lz4 v2.2.7+incompatible
	github.com/prometheus/client_golang v1.1.0
	github.com/prometheus/client_model v0.0.0-20190812154241-14fe0d1b01d4
	github.com/prometheus/common v0.6.0
	github.com/prometheus/procfs v0.0.4
	github.com/rs/zerolog v1.15.0
	github.com/ryanuber/go-glob v1.0.0
	goji.io v2.0.2+incompatible
	golang.org/x/crypto v0.0.0-20190829043050-9756ffdc2472
	golang.org/x/net v0.0.0-20190827160401-ba9fcec4b297
	golang.org/x/sys v0.0.0-20190904154756-749cb33beabd
	golang.org/x/text v0.3.2
	golang.org/x/time v0.0.0-20190308202827-9d24e82272b4
	google.golang.org/appengine v1.6.2
	gopkg.in/square/go-jose.v2 v2.3.1
)
